votesmart
…
One of the most powerful things about VoteSmart is its wealth of
information about candidates’ positions on issues as rated by a number
of Special Interest Groups, or SIGs.

Given a candidate_id, we can ask for those ratings using
rating_get_candidate_ratings.

(barney_ratings <-
  rating_get_candidate_ratings(
    candidate_ids = barney_id,
    sig_ids = "" # All SIGs
  )
)
#> Requesting data for {candidate_id: 26897, sig_id: }.
#> # A tibble: 1,640 × 19
#>    rating_id candidate_id sig_id rating rating_name         timespan rating_text
#>    <chr>     <chr>        <chr>  <chr>  <chr>               <chr>    <chr>      
#>  1 8661      26897        2419   63     Positions           2013-20… Barney Fra…
#>  2 6598      26897        1985   9      Lifetime Positions  2013     Bsed on le…
#>  3 6093      26897        1578   100    Lifetime Positions… 2012     <NA>       
#>  4 6305      26897        2086   0      Positions           2012     <NA>       
#>  5 6408      26897        2023   75     Positions           2012     <NA>       
#>  6 6481      26897        1084   91     Positions           2012     <NA>       
#>  7 6616      26897        2159   75     Positions on Techn… 2012     Barney Fra…
#>  8 6642      26897        230    50     Positions           2012     Barney Fra…
#>  9 6725      26897        1734   21     Positions           2012     Barney Fra…
#> 10 6732      26897        329    92     Global Issues Score 2012     Barney Fra…
#> # ℹ 1,630 more rows
#> # ℹ 12 more variables: category_id_1 <chr>, category_name_1 <chr>,
#> #   category_id_2 <chr>, category_name_2 <chr>, category_id_3 <chr>,
#> #   category_name_3 <chr>, category_id_4 <chr>, category_name_4 <chr>,
#> #   category_id_5 <chr>, category_name_5 <chr>, category_id_6 <chr>,
#> #   category_name_6 <chr>
…
  select(main_cols)
)
#> Warning: Using an external vector in selections was deprecated in tidyselect 1.1.0.
#> ℹ Please use `all_of()` or `any_of()` instead.
#>   # Was:
#>   data %>% select(main_cols)
#> 
#>   # Now:
#>   data %>% select(all_of(main_cols))
#> 
#> See <https://tidyselect.r-lib.org/reference/faq-external-vector.html>.
#> This warning is displayed once every 8 hours.
#> Call `lifecycle::last_lifecycle_warnings()` to see where this warning was
#> generated.
#> # A tibble: 39 × 4
#>    rating category_name_1 sig_id timespan 
#>    <chr>  <chr>           <chr>  <chr>    
#>  1 92     Environment     1012   2012     
#>  2 89     Environment     1012   2012     
#>  3 91     Environment     1012   2011-2012
#>  4 100    Environment     1938   2011-2012
#>  5 88     Environment     1826   2011-2012
#>  6 71     Environment     922    2011-2012
#>  7 94     Environment     1012   2011     
#>  8 92     Environment     1012   2011     
#>  9 100    Environment     1197   2011     
#> 10 96     Environment     1826   2011     
#> # ℹ 29 more rows

Something to be aware of is that some SIGs give ratings as letter
grades:

barney_ratings %>%
  filter(
    stringr::str_detect(rating, "[A-Z]")
  ) %>%
  select(rating, category_name_1)
#> # A tibble: 26 × 2
#>    rating category_name_1      
#>    <chr>  <chr>                
#>  1 F      Guns                 
#>  2 A      Foreign Affairs      
#>  3 F      Social               
#>  4 F      Guns                 
#>  5 F-     Guns                 
#>  6 A      Foreign Affairs      
#>  7 A+     Foreign Affairs      
#>  8 F      Fiscally Conservative
#>  9 C      Foreign Affairs      
#> 10 F      Immigration          
#> # ℹ 16 more rows

But using just Barney’s number grades, we can get his average rating
on this category per timespan:

barney_on_env %>%
  group_by(timespan) %>%
  summarise(
    avg_rating = mean(as.numeric(rating), na.rm = TRUE)
  ) %>%
  arrange(desc(timespan))
#> # A tibble: 23 × 2
#>    timespan  avg_rating
#>    <chr>          <dbl>
#>  1 2012            90.5
#>  2 2011-2012       87.5
#>  3 2011            95.5
#>  4 2010            86  
#>  5 2009-2010       83.5
#>  6 2009           100  
#>  7 2008            92  
#>  8 2007-2008       88  
#>  9 2007            90  
#> 10 2006           100  
#> # ℹ 13 more rows

Keep in mind that these are ratings given by SIGs, which often have
very different baseline stances on issues. For example, a pro-life group
might give a candidate a rating of 0 whereas a pro-choice group might
give that same candidate a 100.

barney_ratings %>%
  filter(category_name_1 == "Abortion") %>%
  select(
    rating, sig_id, category_name_1
  )
#> # A tibble: 36 × 3
#>    rating sig_id category_name_1
#>    <chr>  <chr>  <chr>          
#>  1 100    1016   Abortion       
#>  2 0      252    Abortion       
#>  3 100    1016   Abortion       
#>  4 0      252    Abortion       
#>  5 0      1195   Abortion       
#>  6 100    1016   Abortion       
#>  7 0      1086   Abortion       
#>  8 0      252    Abortion       
#>  9 100    1016   Abortion       
#> 10 0      1086   Abortion       
#> # ℹ 26 more rows
…
That function requires a vector of issue category_ids,
however, so let’s first get a vector of some
category_ids.

(category_df <-
  rating_get_categories(
    state_ids = NA # NA for national
  ) %>%
  distinct() %>%
  sample_n(nrow(.)) # Sampling so we can see multiple categories in the 10 rows shown here
)
#> Beginning to get categories for state NA.
#> # A tibble: 40 × 3
#>    category_id name                      state_id
#>    <chr>       <chr>                     <chr>   
#>  1 67          Unemployed and Low-Income <NA>    
#>  2 71          Death Penalty             <NA>    
#>  3 68          Women                     <NA>    
#>  4 11          Business and Consumers    <NA>    
#>  5 66          Veterans                  <NA>    
#>  6 12          Elections                 <NA>    
#>  7 73          Gambling and Gaming       <NA>    
#>  8 39          Housing and Property      <NA>    
#>  9 20          Criminal Justice          <NA>    
#> 10 29          Energy                    <NA>    
#> # ℹ 30 more rows
…
(some_categories <- category_df$category_id %>% sample(3))
#> [1] "64" "71" "13"

(sigs <-
  rating_get_sig_list(
    category_ids = some_categories,
    state_ids = NA
  ) %>%
  select(sig_id, name, category_id, state_id) %>%
  sample_n(nrow(.))
)
#> Requesting data for {category_id: 64, state_id: NA}.
#> Requesting data for {category_id: 71, state_id: NA}.
#> Requesting data for {category_id: 13, state_id: NA}.
#> # A tibble: 58 × 4
#>    sig_id name                                              category_id state_id
#>    <chr>  <chr>                                             <chr>       <chr>   
#>  1 1268   United Automobile, Aerospace and Agricultural Im… 64          <NA>    
#>  2 2024   National Religious Campaign Against Torture       13          <NA>    
#>  3 1378   American Civil Liberties Union (ACLU)             13          <NA>    
#>  4 1419   Center for International Policy                   13          <NA>    
#>  5 545    National LGBTQ Task Force                         13          <NA>    
#>  6 847    Transportation Communications Union               64          <NA>    
#>  7 3107   One Fair Wage Action                              13          <NA>    
#>  8 2550   Emgage Action                                     13          <NA>    
#>  9 3127   Moms In Office                                    13          <NA>    
#> 10 318    Campaign for a Color Blind America                13          <NA>    
#> # ℹ 48 more rows
…
sigs %>%
  rename(
    sig_name = name
  ) %>%
  left_join(
    category_df,
    by = c("state_id", "category_id")
  ) %>%
  rename(
    category_name_1 = name
  ) %>%
  sample_n(nrow(.))
#> # A tibble: 58 × 5
#>    sig_id sig_name                          category_id state_id category_name_1
#>    <chr>  <chr>                             <chr>       <chr>    <chr>          
#>  1 3020   RootsAction                       13          <NA>     Civil Libertie…
#>  2 1059   League of United Latin American … 13          <NA>     Civil Libertie…
#>  3 545    National LGBTQ Task Force         13          <NA>     Civil Libertie…
#>  4 3127   Moms In Office                    13          <NA>     Civil Libertie…
#>  5 978    Americans for Democratic Action … 13          <NA>     Civil Libertie…
#>  6 3001   Brand New Congress                13          <NA>     Civil Libertie…
#>  7 1419   Center for International Policy   13          <NA>     Civil Libertie…
#>  8 2983   RAICES Action Fund                13          <NA>     Civil Libertie…
#>  9 3126   The Jewish Vote                   13          <NA>     Civil Libertie…
#> 10 437    Friends Committee on National Le… 13          <NA>     Civil Libertie…
#> # ℹ 48 more rows
…
